{
  "type": "mysql",
  "host": "localhost",
  "port": 33306,
  "username": "root",
  "password": "root",
  "database": "linkedin",
  "synchronize": true,
  "logging": true,
  "entities": [
    "app/entity/**/*.ts"
  ],
  "migrations": [
    "app/migration/**/*.ts"
  ],
  "subscribers": [
    "app/subscriber/**/*.ts"
  ]
}